<?xml version="1.0" encoding="UTF-8" standalone="no"?>
<!DOCTYPE svg PUBLIC "-//W3C//DTD SVG 1.1//EN" "http://www.w3.org/Graphics/SVG/1.1/DTD/svg11.dtd">
<svg width="100%" height="100%" viewBox="0 0 1 1" version="1.1" xmlns="http://www.w3.org/2000/svg" xmlns:xlink="http://www.w3.org/1999/xlink" xml:space="preserve" xmlns:serif="http://www.serif.com/" style="fill-rule:evenodd;clip-rule:evenodd;stroke-linejoin:round;stroke-miterlimit:2;">
    <path d="M0.5,0C0.775,0 1,0.225 1,0.5C1,0.775 0.775,1 0.5,1C0.225,1 0,0.775 0,0.5C0,0.225 0.225,0 0.5,0Z"/>
    <path d="M0.723,0.28C0.747,0.28 0.764,0.287 0.781,0.304C0.795,0.318 0.806,0.339 0.806,0.359L0.806,0.643C0.806,0.667 0.795,0.684 0.781,0.701C0.764,0.715 0.747,0.725 0.723,0.725L0.277,0.725C0.253,0.725 0.236,0.715 0.219,0.701C0.201,0.684 0.194,0.667 0.194,0.643L0.194,0.359C0.194,0.339 0.201,0.318 0.219,0.304C0.236,0.287 0.253,0.28 0.277,0.28L0.346,0.28L0.364,0.238C0.367,0.228 0.374,0.218 0.384,0.211C0.395,0.204 0.408,0.2 0.419,0.2L0.581,0.2C0.592,0.2 0.602,0.204 0.612,0.211C0.623,0.218 0.633,0.228 0.636,0.238L0.654,0.28L0.723,0.28Z" style="fill:white;"/>
    <path d="M0.498,0.643C0.54,0.643 0.571,0.629 0.598,0.601C0.626,0.574 0.643,0.539 0.643,0.501C0.643,0.463 0.63,0.432 0.598,0.401C0.571,0.373 0.54,0.359 0.498,0.359C0.46,0.363 0.429,0.377 0.398,0.401C0.37,0.428 0.357,0.463 0.357,0.501C0.36,0.542 0.374,0.577 0.398,0.601C0.426,0.629 0.46,0.643 0.498,0.643Z"/>
    <path d="M0.498,0.411C0.526,0.411 0.547,0.422 0.564,0.439C0.581,0.456 0.592,0.477 0.592,0.501C0.592,0.529 0.581,0.549 0.564,0.567C0.547,0.584 0.526,0.591 0.498,0.594C0.474,0.594 0.453,0.584 0.436,0.567C0.415,0.549 0.408,0.525 0.408,0.501C0.408,0.477 0.419,0.456 0.436,0.439C0.453,0.418 0.474,0.411 0.498,0.411Z" style="fill:white;"/>
</svg>
