<!-- Generated by IcoMoon.io -->
<svg version="1.1" xmlns="http://www.w3.org/2000/svg" width="1097" height="1024" viewBox="0 0 1097 1024">
<title></title>
<g id="icomoon-ignore">
</g>
<path d="M548.864 384q67.584 0 115.712 48.128t48.128 116.736-48.128 115.712-115.712 48.128-116.736-48.128-48.128-115.712 48.128-116.736 116.736-48.128zM951.296 146.432q60.416 0 103.424 43.008t41.984 103.424v512q0 60.416-41.984 103.424t-103.424 43.008h-804.864q-60.416 0-103.424-43.008t-43.008-103.424v-512q0-60.416 43.008-103.424t103.424-43.008h128l28.672-77.824q11.264-27.648 39.936-48.128t59.392-20.48h292.864q29.696 0 58.368 20.48t39.936 48.128l29.696 77.824h128zM548.864 804.864q105.472 0 180.224-75.776t75.776-180.224-75.776-181.248-180.224-74.752-181.248 74.752-74.752 181.248 74.752 180.224 181.248 75.776z"></path>
</svg>
