<?xml version="1.0" encoding="UTF-8" standalone="no"?>
<!DOCTYPE svg PUBLIC "-//W3C//DTD SVG 1.1//EN" "http://www.w3.org/Graphics/SVG/1.1/DTD/svg11.dtd">
<svg width="100%" height="100%" viewBox="0 0 512 512" version="1.1" xmlns="http://www.w3.org/2000/svg" xmlns:xlink="http://www.w3.org/1999/xlink" xml:space="preserve" xmlns:serif="http://www.serif.com/" style="fill-rule:evenodd;clip-rule:evenodd;stroke-linejoin:round;stroke-miterlimit:2;">
    <g transform="matrix(0.83309,0,0,0.83309,-170.548,-147.257)">
        <g>
            <path id="Logo" d="M302.4,711.1L302.4,530.1L255.1,530.1C248.1,530.1 242.4,524.4 242.4,517.4C242.4,514.1 243.7,510.9 246.1,508.5L500.7,251C506.8,244.8 516.9,244.7 523.1,250.9L523.2,251L656.1,384.8L656.1,360C656.1,354.2 660.8,349.4 666.7,349.4L710.9,349.4C716.7,349.4 721.5,354.1 721.5,360L721.5,451L778,508.6C782.9,513.6 782.8,521.6 777.8,526.5C775.4,528.8 772.2,530.1 768.9,530.1L721.4,530.1L721.4,711C721.4,716.8 716.7,721.6 710.8,721.6L312.9,721.6C307.1,721.7 302.4,716.9 302.4,711.1ZM583.4,490C584.7,487.3 585.4,484.4 585.4,481.2C585.4,469.9 576.3,460.8 565,460.8C553.7,460.8 544.6,469.9 544.6,481.2C544.6,492.5 553.7,501.6 565,501.6C568.2,501.6 571.1,500.9 573.8,499.6L603.1,528.8L603.1,557.1L566.4,593.8L566.4,567C574.3,564.2 580,556.7 580,547.8C580,536.6 570.9,527.4 559.6,527.4C548.3,527.4 539.2,536.5 539.2,547.8C539.2,556.7 544.9,564.2 552.8,567L552.8,607.4L518.8,641.4L518.8,442L546.7,414.1C549.4,415.4 552.3,416.1 555.5,416.1C566.8,416.1 575.9,407 575.9,395.7C575.9,384.5 566.8,375.3 555.5,375.3C544.2,375.3 535.1,384.4 535.1,395.7C535.1,398.8 535.8,401.8 537.1,404.5L512,429.6L486.9,404.5C488.2,401.8 488.9,398.9 488.9,395.7C488.9,384.5 479.8,375.3 468.5,375.3C457.2,375.3 448.1,384.4 448.1,395.7C448.1,407 457.2,416.1 468.5,416.1C471.7,416.1 474.6,415.4 477.3,414.1L505.2,442L505.2,584.4L456.2,535.5L456.2,496.4C464.1,493.6 469.8,486.1 469.8,477.2C469.8,465.9 460.7,456.8 449.4,456.8C438.1,456.8 429,465.9 429,477.2C429,486.1 434.7,493.6 442.6,496.4L442.6,521.9L404.5,483.9L404.5,446.2C412.4,443.4 418.1,435.9 418.1,427C418.1,415.7 409,406.6 397.7,406.6C386.4,406.6 377.3,415.7 377.3,427C377.3,435.9 383,443.4 390.9,446.2L390.9,489.6L433,531.6L408.8,531.6C406,523.7 398.4,518 389.6,518C378.3,518 369.2,527.1 369.2,538.4C369.2,549.7 378.3,558.8 389.6,558.8C398.5,558.8 406,553.1 408.8,545.2L446.6,545.2L505.2,603.7L505.2,705.4L473.8,674L473.8,634.9C481.7,632.1 487.4,624.6 487.4,615.7C487.4,604.4 478.3,595.3 467,595.3C455.7,595.3 446.6,604.4 446.6,615.7C446.6,624.6 452.3,632.1 460.2,634.9L460.2,660.4L414.7,615C416,612.3 416.7,609.4 416.7,606.2C416.7,595 407.6,585.8 396.3,585.8C385,585.8 375.9,594.9 375.9,606.2C375.9,617.4 385,626.6 396.3,626.6C399.4,626.6 402.4,625.9 405.1,624.6L450.6,670L426.4,670C423.6,662.1 416,656.4 407.2,656.4C395.9,656.4 386.8,665.5 386.8,676.8C386.8,688 395.9,697.2 407.2,697.2C416.1,697.2 423.6,691.5 426.4,683.6L464.2,683.6L502.3,721.6L521.5,721.6L561,682.2L597.4,682.2C600.2,690.1 607.8,695.8 616.6,695.8C627.9,695.8 637,686.7 637,675.4C637,664.1 627.9,655 616.6,655C607.7,655 600.2,660.7 597.4,668.6L555.3,668.6L518.7,705.2L518.7,660.6L562.3,617L632.8,617C635.6,624.9 643.2,630.6 652,630.6C663.3,630.6 672.4,621.5 672.4,610.2C672.4,598.9 663.3,589.8 652,589.8C643.1,589.8 635.6,595.5 632.8,603.4L576,603.4L616.7,562.8L616.7,528.8L646,499.6C648.7,500.9 651.6,501.6 654.8,501.6C666.1,501.6 675.2,492.5 675.2,481.2C675.2,469.9 666.1,460.8 654.8,460.8C643.5,460.8 634.4,469.9 634.4,481.2C634.4,484.3 635.1,487.3 636.4,490L616.7,509.6L616.7,447.4C624.6,444.6 630.3,437.1 630.3,428.2C630.3,416.9 621.2,407.8 609.9,407.8C598.6,407.8 589.5,416.9 589.5,428.2C589.5,437.1 595.2,444.6 603.1,447.4L603.1,509.6L583.4,490ZM407.1,685C402.6,685 398.9,681.4 398.9,676.9C398.9,672.4 402.6,668.8 407.1,668.8C411.6,668.8 415.3,672.4 415.3,676.9C415.3,681.3 411.7,685 407.1,685ZM467,623.9C462.5,623.9 458.8,620.3 458.8,615.8C458.8,611.3 462.5,607.6 467,607.6C471.5,607.6 475.2,611.2 475.2,615.8C475.2,620.2 471.5,623.9 467,623.9ZM396.3,614.4C391.8,614.4 388.1,610.8 388.1,606.3C388.1,601.8 391.8,598.2 396.3,598.2C400.8,598.2 404.5,601.9 404.5,606.3C404.4,610.7 400.8,614.4 396.3,614.4ZM389.5,546.5C385,546.5 381.3,542.9 381.3,538.4C381.3,533.9 385,530.3 389.5,530.3C394,530.3 397.7,533.9 397.7,538.4C397.7,542.9 394,546.5 389.5,546.5ZM559.5,556C555,556 551.3,552.4 551.3,547.9C551.3,543.4 555,539.8 559.5,539.8C564,539.8 567.7,543.4 567.7,547.9C567.7,552.4 564,556 559.5,556ZM652,618.4C647.5,618.4 643.8,614.8 643.8,610.3C643.8,605.8 647.5,602.2 652,602.2C656.5,602.2 660.2,605.8 660.2,610.3C660.2,614.8 656.6,618.4 652,618.4ZM616.7,683.6C612.2,683.6 608.5,680 608.5,675.5C608.5,671 612.2,667.4 616.7,667.4C621.2,667.4 624.9,671 624.9,675.5C624.8,680 621.2,683.6 616.7,683.6ZM654.8,489.4C650.3,489.4 646.6,485.8 646.6,481.3C646.6,476.8 650.3,473.2 654.8,473.2C659.3,473.2 663,476.8 663,481.3C662.9,485.8 659.3,489.4 654.8,489.4ZM609.9,436.4C605.4,436.4 601.7,432.8 601.7,428.3C601.7,423.8 605.4,420.1 609.9,420.1C614.4,420.1 618.1,423.7 618.1,428.3C618,432.8 614.4,436.4 609.9,436.4ZM555.4,403.8C550.9,403.8 547.2,400.2 547.2,395.7C547.2,391.2 550.9,387.6 555.4,387.6C559.9,387.6 563.6,391.2 563.6,395.7C563.6,400.2 560,403.8 555.4,403.8ZM468.4,403.8C463.9,403.8 460.2,400.2 460.2,395.7C460.2,391.2 463.9,387.6 468.4,387.6C472.9,387.6 476.6,391.2 476.6,395.7C476.5,400.2 472.9,403.8 468.4,403.8ZM397.6,435.1C393.1,435.1 389.4,431.5 389.4,427C389.4,422.5 393.1,418.9 397.6,418.9C402.1,418.9 405.8,422.5 405.8,427C405.8,431.4 402.1,435.1 397.6,435.1ZM449.3,485.3C444.8,485.3 441.1,481.7 441.1,477.2C441.1,472.7 444.8,469.1 449.3,469.1C453.8,469.1 457.5,472.7 457.5,477.2C457.5,481.7 453.8,485.3 449.3,485.3ZM565,489.4C560.5,489.4 556.8,485.8 556.8,481.3C556.8,476.8 560.5,473.2 565,473.2C569.5,473.2 573.2,476.8 573.2,481.3C573.1,485.8 569.5,489.4 565,489.4Z" style="fill-rule:nonzero;"/>
            <path id="Lazy_solution_I_know" d="M502.2,721.5L502.4,721.8L521.4,721.8L521.6,721.5L502.2,721.5Z" style="fill-rule:nonzero;"/>
        </g>
    </g>
</svg>
