<?xml version="1.0" encoding="UTF-8" standalone="no"?>
<!DOCTYPE svg PUBLIC "-//W3C//DTD SVG 1.1//EN" "http://www.w3.org/Graphics/SVG/1.1/DTD/svg11.dtd">
<svg width="100%" height="100%" viewBox="0 0 512 512" version="1.1" xmlns="http://www.w3.org/2000/svg" xmlns:xlink="http://www.w3.org/1999/xlink" xml:space="preserve" xmlns:serif="http://www.serif.com/" style="fill-rule:evenodd;clip-rule:evenodd;stroke-linejoin:round;stroke-miterlimit:2;">
    <g>
        <path d="M114.333,20L436,316L302,325L358,453L267,492L210,365.652L114.333,455.875L114.333,20ZM140.943,86.415L140.943,387.39L219.453,313.03L280.555,452.252L316,435.128L256,297.02L363.057,290.805L140.943,86.415Z"/>
    </g>
</svg>
