<?xml version="1.0" encoding="UTF-8" standalone="no"?>
<!DOCTYPE svg PUBLIC "-//W3C//DTD SVG 1.1//EN" "http://www.w3.org/Graphics/SVG/1.1/DTD/svg11.dtd">
<svg width="100%" height="100%" viewBox="0 0 512 512" version="1.1" xmlns="http://www.w3.org/2000/svg" xmlns:xlink="http://www.w3.org/1999/xlink" xml:space="preserve" xmlns:serif="http://www.serif.com/" style="fill-rule:evenodd;clip-rule:evenodd;stroke-linejoin:round;stroke-miterlimit:2;">
    <g>
        <path d="M120,479.999C64.809,479.999 20,435.191 20,380C20,324.808 64.809,280 120,280L392,280C447.192,280 492,324.808 492,380C492,435.191 447.192,479.999 392,479.999L120,479.999ZM123.84,448.701L388.161,448.701C426.078,448.701 456.863,417.917 456.863,380C456.863,342.082 426.078,311.298 388.161,311.298L123.84,311.298C85.923,311.298 55.138,342.082 55.138,380C55.138,417.917 85.923,448.701 123.84,448.701ZM129.289,324C160.196,324 185.289,349.093 185.289,380C185.289,410.907 160.196,436 129.289,436C98.381,436 73.289,410.907 73.289,380C73.289,349.093 98.381,324 129.289,324ZM120,239.999C64.809,239.999 20,195.191 20,140C20,84.808 64.809,40 120,40L392,40C447.192,40 492,84.808 492,140C492,195.191 447.192,239.999 392,239.999L120,239.999ZM384,84C353.093,84 328,109.093 328,140C328,170.908 353.093,196.001 384,196.001C414.908,196.001 440,170.908 440,140C440,109.093 414.908,84 384,84Z"/>
    </g>
</svg>
