[
  {
    "_comment1": "---------- Copy files from NPM here ----------",
    "outputFileName": "wwwroot/Asset/script/jquery/jquery.js",
    "inputFiles": ["node_modules/jquery/dist/jquery.js"],
    "minify": { "enabled": false },
    "sourceMap": false
  },
  {
    "outputFileName": "wwwroot/Asset/script/qrcode.min.js",
    "inputFiles": ["node_modules/qrcodejs/qrcode.min.js"],
    "minify": { "enabled": false },
    "sourceMap": false
  },
  {
    "outputFileName": "wwwroot/Asset/script/dayjs.min.js",
    "inputFiles": [
      "node_modules/dayjs/dayjs.min.js",
      "node_modules/dayjs/plugin/weekOfYear.js",
      "node_modules/dayjs/plugin/isoWeek.js",
      "node_modules/dayjs/plugin/isoWeeksInYear.js",
      "node_modules/dayjs/plugin/utc.js",
      "node_modules/dayjs/plugin/customParseFormat.js",
      "node_modules/dayjs/plugin/advancedFormat.js",
      "node_modules/dayjs/plugin/duration.js",
      "node_modules/dayjs/plugin/relativeTime.js",
      "Static/dayjs.js"
    ],
    "minify": { "enabled": false },
    "sourceMap": false
  },
  {
    "outputFileName": "wwwroot/Asset/script/promise-polyfill.min.js",
    "inputFiles": ["node_modules/promise-polyfill/dist/polyfill.min.js"],
    "minify": { "enabled": false },
    "sourceMap": false
  },
  {
    "outputFileName": "wwwroot/Asset/script/validation/jquery.validate.js",
    "inputFiles": ["node_modules/jquery-validation/dist/jquery.validate.js"],
    "minify": { "enabled": false },
    "sourceMap": false
  },
  {
    "outputFileName": "wwwroot/Asset/script/jquery/jquery.mousewheel.js",
    "inputFiles": ["node_modules/jquery-mousewheel/jquery.mousewheel.js"],
    "minify": { "enabled": false },
    "sourceMap": false
  },
  {
    "outputFileName": "wwwroot/Asset/script/validation/additional-methods.js",
    "inputFiles": ["node_modules/jquery-validation/dist/additional-methods.js"],
    "minify": { "enabled": false },
    "sourceMap": false
  },
  {
    "outputFileName": "wwwroot/Asset/script/datetimepicker/jquery.datetimepicker.full.js",
    "inputFiles": ["node_modules/jquery-datetimepicker/build/jquery.datetimepicker.full.js"],
    "minify": { "enabled": false },
    "sourceMap": false
  },
  {
    "outputFileName": "wwwroot/Asset/script/datetimepicker/jquery.datetimepicker.min.css",
    "inputFiles": ["node_modules/jquery-datetimepicker/build/jquery.datetimepicker.min.css"],
    "minify": { "enabled": false },
    "sourceMap": false
  },
  {
    "outputFileName": "wwwroot/Asset/script/marked.min.js",
    "inputFiles": ["node_modules/marked/marked.min.js", "Static/app-marked.js"],
    "minify": { "enabled": false },
    "sourceMap": false
  },
  {
    "outputFileName": "wwwroot/Asset/script/handlebars.min.js",
    "inputFiles": ["node_modules/handlebars/dist/handlebars.js"],
    "minify": { "enabled": true },
    "sourceMap": false
  },
  {
    "outputFileName": "wwwroot/Asset/script/popper.min.js",
    "inputFiles": ["node_modules/@popperjs/core/dist/umd/popper.min.js"],
    "minify": { "enabled": false },
    "sourceMap": false
  },
  {
    "outputFileName": "wwwroot/Asset/script/sortable.js",
    "inputFiles": ["node_modules/sortablejs/Sortable.js"],
    "minify": {"enabled": false}
  },
  {
    "outputFileName": "wwwroot/Asset/script/clipboard.js/clipboard.js",
    "inputFiles": ["node_modules/clipboard/dist/clipboard.js"],
    "minify": {"enabled": false}
  },
  {
    "outputFileName": "wwwroot/Asset/script/jquery/autosize.js",
    "inputFiles": ["node_modules/autosize/dist/autosize.js"],
    "minify": {"enabled": false}
  },
  {
    "outputFileName": "wwwroot/Asset/script/litepicker.min.js",
    "inputFiles": ["node_modules/litepicker/dist/litepicker.js"],
    "minify": { "enabled": true },
    "sourceMap": false
  },
  {
    "outputFileName": "wwwroot/Asset/css/litepicker.min.css",
    "inputFiles": ["node_modules/litepicker/dist/css/litepicker.css"],
    "minify": { "enabled": true },
    "sourceMap": false
  },
  {
    "inputFiles": ["node_modules/heic2any/dist/heic2any.min.js"],
    "outputFileName": "wwwroot/Asset/script/heic2any.min.js",
    "sourceMap": false
  },
  {
    "_comment1": "---------- Add minified below here ----------",
    "outputFileName": "wwwroot/Asset/script/jquery/jquery.min.js",
    "inputFiles": ["wwwroot/Asset/script/jquery/jquery.js"],
    "minify": { "enabled": true }
  },
  {
    "outputFileName": "wwwroot/Asset/script/jquery/autosize.min.js",
    "inputFiles": ["wwwroot/Asset/script/jquery/autosize.js"],
    "minify": {"enabled": true}
  },
  {
    "outputFileName": "wwwroot/Asset/script/clipboard.js/clipboard.min.js",
    "inputFiles": ["wwwroot/Asset/script/clipboard.js/clipboard.js"],
    "minify": {"enabled": true}
  },
  {
    "outputFileName": "wwwroot/Asset/script/jquery/jquery.mousewheel.min.js",
    "inputFiles": ["wwwroot/Asset/script/jquery/jquery.mousewheel.js"],
    "minify": { "enabled": true }
  },
  {
    "outputFileName": "wwwroot/Asset/script/validation/jquery.validate.min.js",
    "inputFiles": ["wwwroot/Asset/script/validation/jquery.validate.js"],
    "minify": { "enabled": true }
  },
  {
    "outputFileName": "wwwroot/Asset/script/validation/additional-methods.min.js",
    "inputFiles": ["wwwroot/Asset/script/validation/additional-methods.js"],
    "minify": { "enabled": true }
  },
  {
    "outputFileName": "wwwroot/Asset/script/sortable.min.js",
    "inputFiles": ["wwwroot/Asset/script/sortable.js"],
    "minify": {"enabled": true}
  },
  {
    "outputFileName": "wwwroot/Asset/script/datetimepicker/jquery.datetimepicker.full.min.js",
    "inputFiles": ["node_modules/jquery-datetimepicker/build/jquery.datetimepicker.full.js"],
    "minify": { "enabled": true }
  },
  {
    "outputFileName": "wwwroot/Asset/script/jquery.fileupload.bundle.min.js",
    "inputFiles": [
      "node_modules/blueimp-file-upload/js/vendor/jquery.ui.widget.js",
      "node_modules/blueimp-file-upload/js/jquery.fileupload.js",
      "node_modules/blueimp-file-upload/js/jquery.iframe-transport.js"
    ],
    "minify": { "enabled": true }
  },
  {
    "outputFileName": "wwwroot/Asset/script/unicode.min.js",
    "inputFiles": ["wwwroot/Asset/script/unicode.js"],
    "minify": { "enabled": true }
  },
  {
    "outputFileName": "wwwroot/Asset/script/highlight.min.js",
    "inputFiles": ["wwwroot/Asset/script/highlight.js"],
    "minify": { "enabled": true }
  },
  {
    "outputFileName": "wwwroot/Asset/script/autocomplete.min.js",
    "inputFiles": ["wwwroot/Asset/script/autocomplete.js"],
    "minify": { "enabled": true }
  },
  {
    "outputFileName": "wwwroot/Asset/script/app-sw.min.js",
    "inputFiles": ["wwwroot/Asset/script/app-sw.js"],
    "minify": { "enabled": true }
  },
  {
    "outputFileName": "wwwroot/Asset/script/app-uploadElement.min.js",
    "inputFiles": ["wwwroot/Asset/script/app-uploadElement.js"],
    "minify": { "enabled": true }
  },
  {
    "outputFileName": "wwwroot/Asset/script/app-uploadbar.min.js",
    "inputFiles": ["wwwroot/Asset/script/app-uploadbar.js"],
    "minify": { "enabled": true }
  },
  {
    "outputFileName": "wwwroot/Asset/script/app-openstreetmaps.min.js",
    "inputFiles": ["wwwroot/Asset/script/app-openstreetmaps.js"],
    "minify": { "enabled": true }
  },
  {
    "outputFileName": "wwwroot/Asset/script/app-tree.min.js",
    "inputFiles": ["wwwroot/Asset/script/app-tree.js"],
    "minify": { "enabled": true }
  },
  {
    "outputFileName": "wwwroot/Asset/script/app-template.min.js",
    "inputFiles": ["wwwroot/Asset/script/app-template.js"],
    "minify": { "enabled": true }
  },
  {
    "outputFileName": "wwwroot/Asset/script/app-signals.min.js",
    "inputFiles": ["wwwroot/Asset/script/app-signals.js"],
    "minify": { "enabled": true }
  },
  {
    "outputFileName": "wwwroot/Asset/script/app-requires.min.js",
    "inputFiles": ["wwwroot/Asset/script/app-requires.js"],
    "minify": { "enabled": true }
  },
  {
    "outputFileName": "wwwroot/Asset/script/app-overlay.min.js",
    "inputFiles": ["wwwroot/Asset/script/app-overlay.js"],
    "minify": { "enabled": true }
  },
  {
    "outputFileName": "wwwroot/Asset/script/app-itemlist.min.js",
    "inputFiles": ["wwwroot/Asset/script/app-itemlist.js"],
    "minify": { "enabled": true }
  },
  {
    "outputFileName": "wwwroot/Asset/script/app-googlemaps.min.js",
    "inputFiles": ["wwwroot/Asset/script/app-googlemaps.js"],
    "minify": { "enabled": true }
  },
  {
    "outputFileName": "wwwroot/Asset/script/app-form-tabs.min.js",
    "inputFiles": ["wwwroot/Asset/script/app-form-tabs.js"],
    "minify": { "enabled": true }
  },
  {
    "outputFileName": "wwwroot/Asset/script/app-form.min.js",
    "inputFiles": ["wwwroot/Asset/script/app-form.js"],
    "minify": { "enabled": true }
  },
  {
    "outputFileName": "wwwroot/Asset/script/app-dropdown.min.js",
    "inputFiles": ["wwwroot/Asset/script/app-dropdown.js"],
    "minify": { "enabled": true }
  },
  {
    "outputFileName": "wwwroot/Asset/script/app-debug.min.js",
    "inputFiles": ["wwwroot/Asset/script/app-debug.js"],
    "minify": { "enabled": true }
  },
  {
    "outputFileName": "wwwroot/Asset/script/app-checkboxDropDownList.min.js",
    "inputFiles": ["wwwroot/Asset/script/app-checkboxDropDownList.js"],
    "minify": { "enabled": true }
  },
  {
    "outputFileName": "wwwroot/Asset/script/app-autoload-form.min.js",
    "inputFiles": ["wwwroot/Asset/script/app-autoload-form.js"],
    "minify": { "enabled": true }
  },
  {
    "outputFileName": "wwwroot/Asset/script/app-autoload.min.js",
    "inputFiles": ["wwwroot/Asset/script/app-autoload.js"],
    "minify": { "enabled": true }
  },
  {
    "outputFileName": "wwwroot/Asset/script/app-autocomplete-placeholder.min.js",
    "inputFiles": ["wwwroot/Asset/script/app-autocomplete-placeholder.js"],
    "minify": { "enabled": true }
  },
  {
    "outputFileName": "wwwroot/Asset/script/app-select-control.min.js",
    "inputFiles": ["wwwroot/Asset/script/app-select-control.js"],
    "minify": { "enabled": true }
  },
  {
    "outputFileName": "wwwroot/Asset/script/app-scroll-handles.min.js",
    "inputFiles": ["wwwroot/Asset/script/app-scroll-handles.js"],
    "minify": { "enabled": true }
  },
  {
    "outputFileName": "wwwroot/Asset/script/app-popper.min.js",
    "inputFiles": ["wwwroot/Asset/script/app-popper.js"],
    "minify": { "enabled": true }
  },
  {
    "outputFileName": "wwwroot/Asset/script/app.min.js",
    "inputFiles": ["wwwroot/Asset/script/app.js"],
    "minify": { "enabled": true }
  },
  {
    "outputFileName": "wwwroot/Asset/script/sweetalert/dist/sweetalert.min.css",
    "inputFiles": ["wwwroot/Asset/script/sweetalert/dist/sweetalert.css"],
    "minify": { "enabled": true }
  },
  {
    "outputFileName": "wwwroot/Asset/css/form-default.min.css",
    "inputFiles": ["wwwroot/Asset/css/form-default.css"],
    "minify": { "enabled": true }
  },
  {
    "outputFileName": "wwwroot/Asset/css/reset.min.css",
    "inputFiles": ["wwwroot/Asset/css/reset.css"],
    "minify": {"enabled": true}
  },
  {
    "outputFileName": "wwwroot/Asset/css/form-overlay.min.css",
    "inputFiles": ["wwwroot/Asset/css/form-overlay.css"],
    "minify": { "enabled": true }
  },
  {
    "outputFileName": "wwwroot/Asset/css/form.min.css",
    "inputFiles": ["wwwroot/Asset/css/form.css"],
    "minify": { "enabled": true }
  },
  {
    "outputFileName": "wwwroot/Asset/css/LineDesign.min.css",
    "inputFiles": ["wwwroot/Asset/css/LineDesign.css"],
    "minify": { "enabled": true }
  },
  {
    "outputFileName": "wwwroot/Asset/css/oauth.min.css",
    "inputFiles": ["wwwroot/Asset/css/oauth.css"],
    "minify": { "enabled": true }
  },
  {
    "outputFileName": "wwwroot/Asset/css/portal.min.css",
    "inputFiles": ["wwwroot/Asset/css/portal.css"],
    "minify": { "enabled": true }
  },
  {
    "outputFileName": "wwwroot/Asset/css/scroll-handles.min.css",
    "inputFiles": ["wwwroot/Asset/css/scroll-handles.css"],
    "minify": { "enabled": true }
  },
  {
    "outputFileName": "wwwroot/Asset/css/compatible.min.css",
    "inputFiles": ["wwwroot/Asset/css/compatible.css"],
    "minify": { "enabled": true }
  },
  {
    "outputFileName": "wwwroot/Asset/script/EventSource.min.js",
    "inputFiles": ["wwwroot/Asset/script/EventSource.js"],
    "minify": {"enabled": true}
  },
  {
    "outputFileName": "wwwroot/Asset/script/Sortable/Sortable.min.js",
    "inputFiles": ["wwwroot/Asset/script/Sortable/Sortable.js"],
    "minify": {"enabled": true}
  },
  {
    "outputFileName": "wwwroot/Asset/script/ResponsiveSlides.js/responsiveslides.min.js",
    "inputFiles": ["wwwroot/Asset/script/ResponsiveSlides.js/responsiveslides.js"],
    "minify": {"enabled": true}
  }
]
